inscricao/entity/Idioma.class
utfpr/faces/support/SessionBean.class
inscricao/faces/mngbeans/InscricaoBean.class
inscricao/entity/Candidato.class
utfpr/faces/support/RequestBean.class
utfpr/faces/support/PageBean.class
inscricao/faces/mngbeans/RegistroBean.class
utfpr/faces/support/ApplicationBean.class
utfpr/faces/support/FacesBean.class
